Mini Project 04 – STA 9750 Submission Material
…
Warning: There were 2 warnings in `mutate()`.
The first warning was:
ℹ In argument: `date = ym(paste(Year, month))`.
Caused by warning:
!  12 failed to parse.
ℹ Run `dplyr::last_dplyr_warnings()` to see the 1 remaining warning.

Code

df

# A tibble: 559 × 2
   date       level
   <date>     <dbl>
 1 1979-01-01 88808
 2 1979-02-01 89055
 3 1979-03-01 89479
 4 1979-04-01 89417
 5 1979-05-01 89789
 6 1979-06-01 90108
 7 1979-07-01 90217
 8 1979-08-01 90300
 9 1979-09-01 90327
10 1979-10-01 90481
# ℹ 549 more rows
…
Warning: There was 1 warning in `mutate()`.
ℹ In argument: `date = ym(paste(year, month))`.
Caused by warning:
!  2 failed to parse.
There was 1 warning in `mutate()`.
ℹ In argument: `date = ym(paste(year, month))`.
Caused by warning:
!  2 failed to parse.

Code

# ---- Show Final Results ----
df_revisions

# A tibble: 570 × 4
   date       original final revision
   <date>        <dbl> <dbl>    <dbl>
 1 1979-01-01      325   243      -82
 2 1979-02-01      301   294       -7
 3 1979-03-01      324   445      121
 4 1979-04-01       72   -15      -87
 5 1979-05-01      171   291      120
 6 1979-06-01       97   225      128
 7 1979-07-01       44    87       43
 8 1979-08-01        2    49       47
 9 1979-09-01      135    41      -94
10 1979-10-01      306   179     -127
# ℹ 560 more rows
…
